{
  "providers": {
    "awscloudformation": {
      "AuthRoleName": "amplify-trcrm-dev-212645-authRole",
      "UnauthRoleArn": "arn:aws:iam::957708162239:role/amplify-trcrm-dev-212645-unauthRole",
      "AuthRoleArn": "arn:aws:iam::957708162239:role/amplify-trcrm-dev-212645-authRole",
      "Region": "us-east-2",
      "DeploymentBucketName": "amplify-trcrm-dev-212645-deployment",
      "UnauthRoleName": "amplify-trcrm-dev-212645-unauthRole",
      "StackName": "amplify-trcrm-dev-212645",
      "StackId": "arn:aws:cloudformation:us-east-2:957708162239:stack/amplify-trcrm-dev-212645/00b724f0-ba08-11ec-94f5-0613401afc1e",
      "AmplifyAppId": "d1zre4axvykg8f"
    }
  },
  "auth": {
    "trcrmc892667c": {
      "service": "Cognito",
      "providerPlugin": "awscloudformation",
      "dependsOn": [],
      "customAuth": false,
      "frontendAuthConfig": {
        "socialProviders": [],
        "usernameAttributes": [],
        "signupAttributes": [
          "EMAIL"
        ],
        "passwordProtectionSettings": {
          "passwordPolicyMinLength": 8,
          "passwordPolicyCharacters": []
        },
        "mfaConfiguration": "OFF",
        "mfaTypes": [
          "SMS"
        ],
        "verificationMechanisms": [
          "EMAIL"
        ]
      },
      "providerMetadata": {
        "s3TemplateURL": "https://s3.amazonaws.com/amplify-trcrm-dev-212645-deployment/amplify-cfn-templates/auth/trcrmc892667c-cloudformation-template.json",
        "logicalId": "authtrcrmc892667c"
      },
      "lastPushTimeStamp": "2022-04-26T03:31:13.146Z",
      "output": {
        "UserPoolId": "us-east-2_rBecDgSLR",
        "AppClientIDWeb": "74bnb3muifpgd9ovl9ldjucd3s",
        "AppClientID": "58ni88rjaus5smh9qfdaufn93u",
        "IdentityPoolId": "us-east-2:d8e09ec9-cc4b-4164-bcf7-63c2c34c9687",
        "UserPoolArn": "arn:aws:cognito-idp:us-east-2:957708162239:userpool/us-east-2_rBecDgSLR",
        "IdentityPoolName": "trcrmc892667c_identitypool_c892667c__dev",
        "UserPoolName": "trcrmc892667c_userpool_c892667c"
      },
      "lastPushDirHash": "FKTg3pHvc+yBSNvN6+GxxhhF1sI="
    }
  },
  "storage": {
    "ProductImages": {
      "service": "S3",
      "providerPlugin": "awscloudformation",
      "dependsOn": [],
      "lastPushTimeStamp": "2022-04-26T03:31:13.148Z",
      "providerMetadata": {
        "s3TemplateURL": "https://s3.amazonaws.com/amplify-trcrm-dev-212645-deployment/amplify-cfn-templates/storage/cloudformation-template.json",
        "logicalId": "storageProductImages"
      },
      "output": {
        "BucketName": "piuwzhymuiz212645-dev",
        "Region": "us-east-2"
      },
      "lastPushDirHash": "zh2m+83pIYHutghMiQrsUz89EOU="
    }
  },
  "function": {
    "postProduct": {
      "build": true,
      "providerPlugin": "awscloudformation",
      "service": "Lambda",
      "lastBuildTimeStamp": "2022-04-13T16:57:06.313Z",
      "lastBuildType": "PROD",
      "lastPackageTimeStamp": "2022-04-13T16:57:06.328Z",
      "distZipFilename": "postProduct-344e374d754c77493035-build.zip",
      "s3Bucket": {
        "deploymentBucketName": "amplify-trcrm-dev-212645-deployment",
        "s3Key": "amplify-builds/postProduct-344e374d754c77493035-build.zip"
      },
      "providerMetadata": {
        "s3TemplateURL": "https://s3.amazonaws.com/amplify-trcrm-dev-212645-deployment/amplify-cfn-templates/function/postProduct-cloudformation-template.json",
        "logicalId": "functionpostProduct"
      },
      "lastPushTimeStamp": "2022-04-26T03:31:13.149Z",
      "output": {
        "Region": "us-east-2",
        "Arn": "arn:aws:lambda:us-east-2:957708162239:function:postProduct-dev",
        "Name": "postProduct-dev",
        "LambdaExecutionRole": "trcrmLambdaRole50560b96-dev"
      },
      "lastPushDirHash": "M0sklYp4Rzx1c/PjOCGW0J1WEm0="
    },
    "deleteProduct": {
      "build": true,
      "providerPlugin": "awscloudformation",
      "service": "Lambda",
      "lastBuildTimeStamp": "2022-04-12T03:03:09.808Z",
      "lastBuildType": "PROD",
      "lastPackageTimeStamp": "2022-04-12T03:03:09.841Z",
      "distZipFilename": "deleteProduct-6f765239646666765342-build.zip",
      "s3Bucket": {
        "deploymentBucketName": "amplify-trcrm-dev-212645-deployment",
        "s3Key": "amplify-builds/deleteProduct-6f765239646666765342-build.zip"
      },
      "providerMetadata": {
        "s3TemplateURL": "https://s3.amazonaws.com/amplify-trcrm-dev-212645-deployment/amplify-cfn-templates/function/deleteProduct-cloudformation-template.json",
        "logicalId": "functiondeleteProduct"
      },
      "lastPushTimeStamp": "2022-04-26T03:31:13.150Z",
      "output": {
        "Region": "us-east-2",
        "Arn": "arn:aws:lambda:us-east-2:957708162239:function:deleteProduct-dev",
        "Name": "deleteProduct-dev",
        "LambdaExecutionRole": "trcrmLambdaRoledf1f05ee-dev"
      },
      "lastPushDirHash": "OfUbxlCZZlc9xSuwn006AHAU1jE="
    }
  },
  "api": {
    "trcrm": {
      "service": "AppSync",
      "providerPlugin": "awscloudformation",
      "dependsOn": [
        {
          "category": "auth",
          "resourceName": "trcrmc892667c",
          "attributes": [
            "UserPoolId"
          ]
        }
      ],
      "output": {
        "authConfig": {
          "defaultAuthentication": {
            "authenticationType": "AMAZON_COGNITO_USER_POOLS",
            "userPoolConfig": {
              "userPoolId": "authtrcrmc892667c"
            }
          },
          "additionalAuthenticationProviders": [
            {
              "authenticationType": "API_KEY",
              "apiKeyConfig": {
                "apiKeyExpirationDays": 365,
                "apiKeyExpirationDate": "2023-04-12T02:37:04.178Z",
                "description": "Guest user access to products?"
              }
            }
          ]
        },
        "GraphQLAPIIdOutput": "gg64scu6svdaxgv34zvlfad7me",
        "GraphQLAPIEndpointOutput": "https://q2gbkh52avbthhvxbahvh6zt6e.appsync-api.us-east-2.amazonaws.com/graphql",
        "GraphQLAPIKeyOutput": "da2-oapuxhxkl5ep5ky7gg3hvtnqdy"
      },
      "providerMetadata": {
        "s3TemplateURL": "https://s3.amazonaws.com/amplify-trcrm-dev-212645-deployment/amplify-cfn-templates/api/cloudformation-template.json",
        "logicalId": "apitrcrm"
      },
      "lastPushTimeStamp": "2022-04-26T03:31:15.285Z",
      "lastPushDirHash": "pFFUWhEkQHYvha0j5LLUgR+6X8M="
    }
  }
}